{
  "__type__": "cc.SpriteFrame",
  "content": {
    "name": "ElectricityFX15-4",
    "texture": "2bcc1a4e-8a95-4acf-9e1f-73c75a227074",
    "atlas": "",
    "rect": [
      39,
      122,
      181,
      119
    ],
    "offset": [
      1.5,
      -53.5
    ],
    "originalSize": [
      256,
      256
    ],
    "capInsets": [
      0,
      0,
      0,
      0
    ]
  }
}