{
  "__type__": "cc.SpriteFrame",
  "content": {
    "name": "Ninja-Jump",
    "texture": "5521d6e3-5b75-4840-9bc5-b562166cee56",
    "atlas": "",
    "rect": [
      9,
      5,
      1889,
      1152
    ],
    "offset": [
      -6.5,
      19
    ],
    "originalSize": [
      1920,
      1200
    ],
    "capInsets": [
      0,
      0,
      0,
      0
    ]
  }
}