{
  "__type__": "cc.SpriteFrame",
  "content": {
    "name": "41",
    "texture": "3a42fd8c-a9ee-4af9-b5f8-44cbe05fb386",
    "atlas": "",
    "rect": [
      0,
      0,
      272,
      227
    ],
    "offset": [
      0,
      0
    ],
    "originalSize": [
      272,
      227
    ],
    "capInsets": [
      0,
      0,
      0,
      0
    ]
  }
}