{
  "__type__": "cc.SpriteFrame",
  "content": {
    "name": "40",
    "texture": "9c673d55-c7b5-45c0-8649-668063096a54",
    "atlas": "",
    "rect": [
      0,
      0,
      272,
      227
    ],
    "offset": [
      0,
      0
    ],
    "originalSize": [
      272,
      227
    ],
    "capInsets": [
      0,
      0,
      0,
      0
    ]
  }
}