{
  "__type__": "cc.SpriteFrame",
  "content": {
    "name": "2",
    "texture": "2e102639-ae25-4651-865e-d66bd267c72c",
    "atlas": "",
    "rect": [
      0,
      0,
      780,
      780
    ],
    "offset": [
      0,
      0
    ],
    "originalSize": [
      780,
      780
    ],
    "capInsets": [
      0,
      0,
      0,
      0
    ]
  }
}