{
  "version": "1.1.1",
  "windows": {
    "main": {
      "main": true,
      "url": "app://editor/index.html",
      "windowType": "dockable",
      "x": 0,
      "y": 23,
      "width": 1440,
      "height": 804,
      "layout": {
        "children": [
          {
            "children": [
              {
                "active": 0,
                "children": [
                  "hierarchy"
                ],
                "height": 339,
                "type": "panel",
                "width": 289
              },
              {
                "active": 0,
                "children": [
                  "assets"
                ],
                "height": 380.984375,
                "type": "panel",
                "width": 289
              }
            ],
            "height": 723,
            "type": "dock-v",
            "width": 289
          },
          {
            "children": [
              {
                "children": [
                  {
                    "active": 0,
                    "children": [
                      "scene"
                    ],
                    "height": 454,
                    "type": "panel",
                    "width": 573.984375
                  },
                  {
                    "active": 0,
                    "children": [
                      "node-library"
                    ],
                    "height": 454,
                    "type": "panel",
                    "width": 264
                  }
                ],
                "height": 454,
                "type": "dock-h",
                "width": 841
              },
              {
                "active": 0,
                "children": [
                  "timeline",
                  "game-window"
                ],
                "height": 266,
                "type": "panel",
                "width": 841
              }
            ],
            "height": 723,
            "type": "dock-v",
            "width": 841
          },
          {
            "active": 0,
            "children": [
              "inspector",
              "cocos-services"
            ],
            "height": 723,
            "type": "panel",
            "width": 304
          }
        ],
        "type": "dock-h"
      },
      "panels": [
        "hierarchy",
        "assets",
        "scene",
        "node-library",
        "timeline",
        "game-window",
        "inspector",
        "cocos-services"
      ]
    }
  },
  "panels": {
    "console": {
      "x": 520,
      "y": 241,
      "width": 841,
      "height": 484
    },
    "builder": {
      "x": 470,
      "y": 41,
      "width": 654,
      "height": 722
    },
    "sprite-editor": {
      "x": 470,
      "y": 141,
      "width": 500,
      "height": 522
    }
  },
  "panelLabelWidth": {
    "inspector": null,
    "builder": null
  },
  "panelLabelWidth.inspector": null,
  "panelLabelWidth.builder": null
}
