{
  "nodeFoldStates": [
    "efAbJGHypIQac64Yx2Y1sm",
    "3euWpIJ4NAGbkV79OwLHDi",
    "46DUIKMD9OVpQiemqjbaoI",
    "42Q+YMvipLKrn52Vk9M0N3",
    "e8oUHzZ3pFQq/vxlc7fYpg",
    "45Id+oFcRDk5LKkCks527A",
    "87XbKafrBIFKLjXtqzo+G2",
    "e4Bi0k7p9FHqjHKdu85X3z",
    "d5naiNAglPLqQtWKtMaAfX",
    "4bvNXASS5JB6JiE9Hnp3Ed",
    "cdcGJnwWdNU4h9aD/FVazU",
    "b583vucKFPCIohRS2UmqZ7",
    "54Q2RnR9BKoZ7PIUg66W7j",
    "4bM2b0WCxGZ6oj/WaZFlCj",
    "85A5P719NKAbYEIpzNUpse",
    "1bVT1sJPlHd6Z+ToZsQsaR",
    "60jezHvoNFHJHA6a6j2Ln0",
    "d2SS4Ej/hOzIVNwtPWbCjA",
    "1cwkLU+i5AmrmddPSlyu/J",
    "4c3gT3nSdIWpx12G0Sbagu",
    "e3rpOtAnNK4LbI0DyoM0X4",
    "05PSvur0xL1ZKTs8GK0pLo",
    "b0RrNq6VBH/Yyd6q0wtsXi",
    "3dQMoDW+VJWqJW78lLY6yw",
    "36Id6zHcBG4IqUra2jzuUq",
    "f5Sw40rS1OMLxccsOASsWX",
    "01kG6C3vtCfrXuZjyggawF",
    "c2Mv93/+5DrIemxDwMISSU",
    "5aPlY+rcFN5qb/afDb59ly",
    "08UqpWG+VCaalMZ7vpz2PW"
  ]
}
