{
  "__type__": "cc.SpriteFrame",
  "content": {
    "name": "ElectricityFX39-4",
    "texture": "c6104839-b79d-4f32-8fc5-043b8e59943d",
    "atlas": "",
    "rect": [
      138,
      49,
      82,
      187
    ],
    "offset": [
      54.5,
      -14.5
    ],
    "originalSize": [
      249,
      256
    ],
    "capInsets": [
      0,
      0,
      0,
      0
    ]
  }
}