{
  "__type__": "cc.SpriteFrame",
  "content": {
    "name": "14",
    "texture": "774b3a26-d0b7-4195-9822-2bdeea62905f",
    "atlas": "",
    "rect": [
      3,
      0,
      170,
      223
    ],
    "offset": [
      1,
      0
    ],
    "originalSize": [
      174,
      223
    ],
    "capInsets": [
      0,
      0,
      0,
      0
    ]
  }
}