{
  "__type__": "cc.SpriteFrame",
  "content": {
    "name": "14",
    "texture": "641ee344-a814-45cc-879e-80bdbd7c8a47",
    "atlas": "",
    "rect": [
      14,
      0,
      337,
      215
    ],
    "offset": [
      -0.5,
      0
    ],
    "originalSize": [
      366,
      215
    ],
    "capInsets": [
      0,
      0,
      0,
      0
    ]
  }
}