{
  "__type__": "cc.SpriteFrame",
  "content": {
    "name": "ElectricityFX15-16",
    "texture": "37309185-d0dc-406d-a853-bd8d76603632",
    "atlas": "",
    "rect": [
      19,
      39,
      233,
      202
    ],
    "offset": [
      7.5,
      -12
    ],
    "originalSize": [
      256,
      256
    ],
    "capInsets": [
      0,
      0,
      0,
      0
    ]
  }
}