{
  "__type__": "cc.SpriteFrame",
  "content": {
    "name": "float_island_6",
    "texture": "4c68ee00-1e2a-468d-9782-1b8549e85513",
    "atlas": "",
    "rect": [
      0,
      0,
      911,
      465
    ],
    "offset": [
      0,
      0
    ],
    "originalSize": [
      911,
      465
    ],
    "capInsets": [
      0,
      0,
      0,
      0
    ]
  }
}