{
  "__type__": "cc.SpriteFrame",
  "content": {
    "name": "5",
    "texture": "cc9db851-91f8-4f51-8343-4be7ae619749",
    "atlas": "",
    "rect": [
      5,
      0,
      189,
      249
    ],
    "offset": [
      2.5,
      0
    ],
    "originalSize": [
      194,
      249
    ],
    "capInsets": [
      0,
      0,
      0,
      0
    ]
  }
}