{
  "__type__": "cc.SpriteFrame",
  "content": {
    "name": "12",
    "texture": "7e4974fe-6ee1-4bdb-be72-202c3cc0aa60",
    "atlas": "",
    "rect": [
      0,
      0,
      190,
      191
    ],
    "offset": [
      0,
      0
    ],
    "originalSize": [
      190,
      191
    ],
    "capInsets": [
      0,
      0,
      0,
      0
    ]
  }
}