{
  "__type__": "cc.SpriteFrame",
  "content": {
    "name": "13",
    "texture": "87602f06-1670-43fb-a927-3cf136ffe955",
    "atlas": "",
    "rect": [
      10,
      8,
      189,
      194
    ],
    "offset": [
      -0.5,
      0
    ],
    "originalSize": [
      210,
      210
    ],
    "capInsets": [
      0,
      0,
      0,
      0
    ]
  }
}