{
  "__type__": "cc.SpriteFrame",
  "content": {
    "name": "18",
    "texture": "0395781a-bdbc-4518-a875-09bb4a86dde2",
    "atlas": "",
    "rect": [
      0,
      16,
      232,
      199
    ],
    "offset": [
      0,
      0.5
    ],
    "originalSize": [
      232,
      232
    ],
    "capInsets": [
      0,
      0,
      0,
      0
    ]
  }
}