{
  "__type__": "cc.SpriteFrame",
  "content": {
    "name": "15",
    "texture": "e21da06c-d95d-4457-9899-16eaa198f3e5",
    "atlas": "",
    "rect": [
      4,
      0,
      356,
      215
    ],
    "offset": [
      -1,
      0
    ],
    "originalSize": [
      366,
      215
    ],
    "capInsets": [
      0,
      0,
      0,
      0
    ]
  }
}