{
  "__type__": "cc.SpriteFrame",
  "content": {
    "name": "4",
    "texture": "dd20bbe4-e0e4-4e89-831b-856db021f7e3",
    "atlas": "",
    "rect": [
      1,
      1,
      848,
      848
    ],
    "offset": [
      0,
      0
    ],
    "originalSize": [
      850,
      850
    ],
    "capInsets": [
      0,
      0,
      0,
      0
    ]
  }
}