{
  "__type__": "cc.SpriteFrame",
  "content": {
    "name": "25",
    "texture": "2fec9ded-38ae-48f5-8e4f-cdb4cfcc6f94",
    "atlas": "",
    "rect": [
      0,
      0,
      177,
      227
    ],
    "offset": [
      0,
      0
    ],
    "originalSize": [
      177,
      227
    ],
    "capInsets": [
      0,
      0,
      0,
      0
    ]
  }
}