{
  "__type__": "cc.SpriteFrame",
  "content": {
    "name": "37",
    "texture": "ee1c7e27-0f6c-43cd-89b5-033565f4b17d",
    "atlas": "",
    "rect": [
      0,
      0,
      242,
      230
    ],
    "offset": [
      0,
      0
    ],
    "originalSize": [
      242,
      230
    ],
    "capInsets": [
      0,
      0,
      0,
      0
    ]
  }
}