{
  "__type__": "cc.SpriteFrame",
  "content": {
    "name": "16",
    "texture": "c2bbe32a-b597-4562-be72-493ccf188e88",
    "atlas": "",
    "rect": [
      0,
      0,
      174,
      223
    ],
    "offset": [
      0,
      0
    ],
    "originalSize": [
      174,
      223
    ],
    "capInsets": [
      0,
      0,
      0,
      0
    ]
  }
}