{
  "__type__": "cc.SpriteFrame",
  "content": {
    "name": "ElectricityFX34-9",
    "texture": "0e2138a7-c1bf-41f9-93a1-62d8fe977c5e",
    "atlas": "",
    "rect": [
      32,
      43,
      136,
      109
    ],
    "offset": [
      -28,
      30.5
    ],
    "originalSize": [
      256,
      256
    ],
    "capInsets": [
      0,
      0,
      0,
      0
    ]
  }
}