{
  "__type__": "cc.SpriteFrame",
  "content": {
    "name": "18",
    "texture": "3bd527ac-000a-4a14-833d-ca2761e9497a",
    "atlas": "",
    "rect": [
      19,
      4,
      172,
      202
    ],
    "offset": [
      0,
      0
    ],
    "originalSize": [
      210,
      210
    ],
    "capInsets": [
      0,
      0,
      0,
      0
    ]
  }
}