{
  "__type__": "cc.SpriteFrame",
  "content": {
    "name": "6",
    "texture": "0aa641e4-c116-4838-9728-8ceff89b0b59",
    "atlas": "",
    "rect": [
      56,
      37,
      196,
      235
    ],
    "offset": [
      -1,
      0.5
    ],
    "originalSize": [
      310,
      310
    ],
    "capInsets": [
      0,
      0,
      0,
      0
    ]
  }
}