{
  "__type__": "cc.SpriteFrame",
  "content": {
    "name": "16",
    "texture": "6c73365a-4ee3-4543-8adf-c4fef1fa15f2",
    "atlas": "",
    "rect": [
      5,
      0,
      270,
      204
    ],
    "offset": [
      -0.5,
      0
    ],
    "originalSize": [
      281,
      204
    ],
    "capInsets": [
      0,
      0,
      0,
      0
    ]
  }
}