{
  "__type__": "cc.SpriteFrame",
  "content": {
    "name": "26",
    "texture": "990c8f8a-4405-44d7-b63f-b738f54760c6",
    "atlas": "",
    "rect": [
      16,
      9,
      178,
      192
    ],
    "offset": [
      0,
      0
    ],
    "originalSize": [
      210,
      210
    ],
    "capInsets": [
      0,
      0,
      0,
      0
    ]
  }
}