{
  "__type__": "cc.SpriteFrame",
  "content": {
    "name": "ElectricityFX15-3",
    "texture": "0dc82510-77d2-46dd-95a4-a9f35887d760",
    "atlas": "",
    "rect": [
      27,
      142,
      195,
      99
    ],
    "offset": [
      -3.5,
      -63.5
    ],
    "originalSize": [
      256,
      256
    ],
    "capInsets": [
      0,
      0,
      0,
      0
    ]
  }
}