{
  "__type__": "cc.SpriteFrame",
  "content": {
    "name": "7",
    "texture": "1b78c789-5e3d-4941-8735-97f7cbbed35f",
    "atlas": "",
    "rect": [
      22,
      0,
      188,
      232
    ],
    "offset": [
      0,
      0
    ],
    "originalSize": [
      232,
      232
    ],
    "capInsets": [
      0,
      0,
      0,
      0
    ]
  }
}