{
  "__type__": "cc.AnimationClip",
  "_name": "ChargeGlowing",
  "_objFlags": 0,
  "_native": "",
  "_duration": 0.7666666666666667,
  "sample": 60,
  "speed": 0.25,
  "wrapMode": 2,
  "curveData": {
    "comps": {
      "cc.Sprite": {
        "spriteFrame": [
          {
            "frame": 0,
            "value": {
              "__uuid__": "d3c3d8e6-5568-4000-8ab2-a31267420a7e"
            }
          },
          {
            "frame": 0.08333333333333333,
            "value": {
              "__uuid__": "c6818a0f-5681-43d2-8a50-891851358a2f"
            }
          },
          {
            "frame": 0.16666666666666666,
            "value": {
              "__uuid__": "274eb38d-2c1b-4fa5-aaf0-66214cdda3d9"
            }
          },
          {
            "frame": 0.25,
            "value": {
              "__uuid__": "b855d8e9-06ce-42c5-8eb8-bf3ac0f1fe44"
            }
          },
          {
            "frame": 0.3333333333333333,
            "value": {
              "__uuid__": "bc370535-0e6a-4ec3-b756-4fa155f345f5"
            }
          },
          {
            "frame": 0.4166666666666667,
            "value": {
              "__uuid__": "971e856d-5f15-44b1-b4fe-e1b63039ffca"
            }
          },
          {
            "frame": 0.5,
            "value": {
              "__uuid__": "c53eaa95-b439-4afb-9259-2266f0a5c4ac"
            }
          },
          {
            "frame": 0.5833333333333334,
            "value": {
              "__uuid__": "1454b035-7828-4bf9-b6d2-3ad087b42164"
            }
          },
          {
            "frame": 0.6666666666666666,
            "value": {
              "__uuid__": "50ec9fab-2edf-4672-b787-9723f36901ee"
            }
          },
          {
            "frame": 0.75,
            "value": {
              "__uuid__": "412d25dd-c7e9-4a93-9943-92c80979991a"
            }
          }
        ]
      }
    }
  },
  "events": []
}