{
  "__type__": "cc.AnimationClip",
  "_name": "electricityanim3",
  "_objFlags": 0,
  "_native": "",
  "_duration": 0.6833333333333333,
  "sample": 60,
  "speed": 1,
  "wrapMode": 2,
  "curveData": {
    "comps": {
      "cc.Sprite": {
        "spriteFrame": [
          {
            "frame": 0,
            "value": {
              "__uuid__": "7c400f57-c3aa-417e-ad49-c5a8818a1299"
            }
          },
          {
            "frame": 0.08333333333333333,
            "value": {
              "__uuid__": "f1d7e61c-5594-492f-b6de-9f775a5188ed"
            }
          },
          {
            "frame": 0.16666666666666666,
            "value": {
              "__uuid__": "e2c6962b-e303-4506-b6ee-c245600c701e"
            }
          },
          {
            "frame": 0.25,
            "value": {
              "__uuid__": "b9483503-66c1-4638-a4d1-6e221c09ee63"
            }
          },
          {
            "frame": 0.3333333333333333,
            "value": {
              "__uuid__": "d3e42376-1ff8-4ed4-857d-ab98b1be3d80"
            }
          },
          {
            "frame": 0.4166666666666667,
            "value": {
              "__uuid__": "df8b2616-dd93-4fb4-a6b1-84fa6a159fed"
            }
          },
          {
            "frame": 0.5,
            "value": {
              "__uuid__": "17931543-a7be-4793-a65e-574390954fda"
            }
          },
          {
            "frame": 0.5833333333333334,
            "value": {
              "__uuid__": "1f795532-30e1-46e7-a409-5eeea0f94f5c"
            }
          },
          {
            "frame": 0.6666666666666666,
            "value": {
              "__uuid__": "ef0d3298-8390-48b4-822c-b31a139b1079"
            }
          }
        ]
      }
    }
  },
  "events": []
}