{
  "__type__": "cc.AnimationClip",
  "_name": "electricityanim9",
  "_objFlags": 0,
  "_native": "",
  "_duration": 1.0166666666666666,
  "sample": 60,
  "speed": 1,
  "wrapMode": 1,
  "curveData": {
    "comps": {
      "cc.Sprite": {
        "spriteFrame": [
          {
            "frame": 0,
            "value": {
              "__uuid__": "469c9624-42b5-48ab-992e-e6bc83b4a8b3"
            }
          },
          {
            "frame": 0.08333333333333333,
            "value": {
              "__uuid__": "469c9624-42b5-48ab-992e-e6bc83b4a8b3"
            }
          },
          {
            "frame": 0.16666666666666666,
            "value": {
              "__uuid__": "063fbe9f-1bfe-48f5-91cd-1aa78eb1e77e"
            }
          },
          {
            "frame": 0.25,
            "value": {
              "__uuid__": "bebffb70-8d63-40a5-adc2-bd40b4be3268"
            }
          },
          {
            "frame": 0.3333333333333333,
            "value": {
              "__uuid__": "5d351f77-dd12-4714-a7b9-d60f4961823e"
            }
          },
          {
            "frame": 0.4166666666666667,
            "value": {
              "__uuid__": "9136652e-b1ae-4100-a527-34721b585c5c"
            }
          },
          {
            "frame": 0.5,
            "value": {
              "__uuid__": "78ab5768-d284-4e98-af73-da323a759914"
            }
          },
          {
            "frame": 0.5833333333333334,
            "value": {
              "__uuid__": "36465ca1-d533-43ca-8345-056aa6a02e6d"
            }
          },
          {
            "frame": 0.6666666666666666,
            "value": {
              "__uuid__": "cdb26fd0-bfdc-470d-930a-c7e1c4168f11"
            }
          },
          {
            "frame": 0.75,
            "value": {
              "__uuid__": "6b87f0c7-d7d3-432c-ade4-0824e14b9f7c"
            }
          },
          {
            "frame": 0.8333333333333334,
            "value": {
              "__uuid__": "49515dcc-e45e-4b98-bb86-7d2c3d9a0cc1"
            }
          },
          {
            "frame": 0.9166666666666666,
            "value": {
              "__uuid__": "b03f9dde-9f46-428c-b071-a628e87388bb"
            }
          },
          {
            "frame": 1,
            "value": {
              "__uuid__": "7dc92291-a2da-40e7-8c23-7965b899aa2d"
            }
          }
        ]
      }
    }
  },
  "events": []
}