{
  "__type__": "cc.AnimationClip",
  "_name": "PlayerAirAttack",
  "_objFlags": 0,
  "_native": "",
  "_duration": 1.6833333333333333,
  "sample": 60,
  "speed": 2,
  "wrapMode": 1,
  "curveData": {
    "comps": {
      "cc.Sprite": {
        "spriteFrame": [
          {
            "frame": 0,
            "value": {
              "__uuid__": "ae6bffa0-b1da-45f1-a155-41676c1ecd1d"
            }
          },
          {
            "frame": 0.08333333333333333,
            "value": {
              "__uuid__": "39f49519-d285-4c03-a762-242199684568"
            }
          },
          {
            "frame": 0.16666666666666666,
            "value": {
              "__uuid__": "12574412-20f1-4fb1-af5a-62705e7ba941"
            }
          },
          {
            "frame": 0.25,
            "value": {
              "__uuid__": "3d87849f-e233-42f1-b2fc-b8e75fd8d448"
            }
          },
          {
            "frame": 0.3333333333333333,
            "value": {
              "__uuid__": "ba95eb2a-7e68-49c0-8723-cd864ceacb87"
            }
          },
          {
            "frame": 0.4166666666666667,
            "value": {
              "__uuid__": "9773df06-cff2-4316-a7ba-78ebefc38c9c"
            }
          },
          {
            "frame": 0.5,
            "value": {
              "__uuid__": "5e4c550d-4219-48e7-977a-feb3179434db"
            }
          },
          {
            "frame": 0.5833333333333334,
            "value": {
              "__uuid__": "024762b0-a8b0-4de3-8e18-61062b7ea849"
            }
          },
          {
            "frame": 0.6666666666666666,
            "value": {
              "__uuid__": "dbdee981-dca5-4b34-b4f0-936e0aa7796f"
            }
          },
          {
            "frame": 0.75,
            "value": {
              "__uuid__": "285c98df-a9cb-41d1-8536-5baff272a96c"
            }
          },
          {
            "frame": 0.8333333333333334,
            "value": {
              "__uuid__": "d6708c93-4337-47b7-9271-e9768b0734b5"
            }
          },
          {
            "frame": 0.9166666666666666,
            "value": {
              "__uuid__": "ff0e2d3b-539f-4e09-a853-c43c7bd9ef58"
            }
          },
          {
            "frame": 1,
            "value": {
              "__uuid__": "74d10dca-6f53-415b-83d5-8bea3d8e8d2c"
            }
          },
          {
            "frame": 1.0833333333333333,
            "value": {
              "__uuid__": "9e4115bc-5dd9-43af-9dd4-75e36f8a9ffd"
            }
          },
          {
            "frame": 1.1666666666666667,
            "value": {
              "__uuid__": "b9bf3359-8377-4386-b2b6-6ba0d702c9fa"
            }
          },
          {
            "frame": 1.25,
            "value": {
              "__uuid__": "4ec19238-a7de-4d33-b028-33df00a7fdf0"
            }
          },
          {
            "frame": 1.3333333333333333,
            "value": {
              "__uuid__": "a520aaff-6439-4675-982c-c7f86fcf4ff8"
            }
          },
          {
            "frame": 1.4166666666666667,
            "value": {
              "__uuid__": "a78ca705-1bfc-4063-b185-7c5aba140bf8"
            }
          },
          {
            "frame": 1.5,
            "value": {
              "__uuid__": "56531f9b-505a-4e43-be0b-8096a4a0b804"
            }
          },
          {
            "frame": 1.5833333333333333,
            "value": {
              "__uuid__": "3747691c-9e96-43ad-91d4-28846423eef4"
            }
          },
          {
            "frame": 1.6666666666666667,
            "value": {
              "__uuid__": "ac1d1f09-44d9-48f2-b619-fba472b160dc"
            }
          }
        ]
      }
    }
  },
  "events": []
}