{
  "__type__": "cc.SpriteFrame",
  "content": {
    "name": "29",
    "texture": "fa337a71-a7f6-41d9-9417-fae4ec5c675e",
    "atlas": "",
    "rect": [
      9,
      0,
      202,
      224
    ],
    "offset": [
      -2,
      0
    ],
    "originalSize": [
      224,
      224
    ],
    "capInsets": [
      0,
      0,
      0,
      0
    ]
  }
}