{
  "__type__": "cc.SpriteFrame",
  "content": {
    "name": "ElectricityFX15-5",
    "texture": "d9964ad9-a120-4f6b-8db3-b11a6412bfa6",
    "atlas": "",
    "rect": [
      15,
      101,
      225,
      140
    ],
    "offset": [
      -0.5,
      -43
    ],
    "originalSize": [
      256,
      256
    ],
    "capInsets": [
      0,
      0,
      0,
      0
    ]
  }
}