{
  "__type__": "cc.AnimationClip",
  "_name": "electricityanim8",
  "_objFlags": 0,
  "_native": "",
  "_duration": 1.1166666666666667,
  "sample": 60,
  "speed": 1,
  "wrapMode": 1,
  "curveData": {
    "comps": {
      "cc.Sprite": {
        "spriteFrame": [
          {
            "frame": 0,
            "value": {
              "__uuid__": "4930957d-a9cd-48d1-be6c-4a9dfadd313b"
            }
          },
          {
            "frame": 0.08333333333333333,
            "value": {
              "__uuid__": "6ff342c5-b25a-44e4-a409-67220b5b2eb7"
            }
          },
          {
            "frame": 0.16666666666666666,
            "value": {
              "__uuid__": "4640bc87-23fb-4c73-a916-5859bc44fe06"
            }
          },
          {
            "frame": 0.25,
            "value": {
              "__uuid__": "0cc16332-6958-4d67-82f9-2b51330e14de"
            }
          },
          {
            "frame": 0.3333333333333333,
            "value": {
              "__uuid__": "e32ef57e-888b-4b7f-a3e4-d76911b89a51"
            }
          },
          {
            "frame": 0.4166666666666667,
            "value": {
              "__uuid__": "f4d11bb2-e5c2-46eb-a54a-15acf785f03a"
            }
          },
          {
            "frame": 0.5,
            "value": {
              "__uuid__": "6d8f3e1f-808a-475f-9249-5d3cc8f460fc"
            }
          },
          {
            "frame": 0.5833333333333334,
            "value": {
              "__uuid__": "4930957d-a9cd-48d1-be6c-4a9dfadd313b"
            }
          },
          {
            "frame": 0.6666666666666666,
            "value": {
              "__uuid__": "6ff342c5-b25a-44e4-a409-67220b5b2eb7"
            }
          },
          {
            "frame": 0.75,
            "value": {
              "__uuid__": "4640bc87-23fb-4c73-a916-5859bc44fe06"
            }
          },
          {
            "frame": 0.8333333333333334,
            "value": {
              "__uuid__": "0cc16332-6958-4d67-82f9-2b51330e14de"
            }
          },
          {
            "frame": 0.9166666666666666,
            "value": {
              "__uuid__": "e32ef57e-888b-4b7f-a3e4-d76911b89a51"
            }
          },
          {
            "frame": 1,
            "value": {
              "__uuid__": "f4d11bb2-e5c2-46eb-a54a-15acf785f03a"
            }
          },
          {
            "frame": 1.0833333333333333,
            "value": {
              "__uuid__": "6d8f3e1f-808a-475f-9249-5d3cc8f460fc"
            }
          },
          {
            "frame": 1.1,
            "value": {
              "__uuid__": "4930957d-a9cd-48d1-be6c-4a9dfadd313b"
            }
          }
        ]
      }
    }
  },
  "events": []
}