{
  "__type__": "cc.SpriteFrame",
  "content": {
    "name": "3",
    "texture": "aec9e176-f8dd-4a6a-a990-b14df780ac23",
    "atlas": "",
    "rect": [
      0,
      0,
      810,
      810
    ],
    "offset": [
      0,
      0
    ],
    "originalSize": [
      810,
      810
    ],
    "capInsets": [
      0,
      0,
      0,
      0
    ]
  }
}