{
  "__type__": "cc.SpriteFrame",
  "content": {
    "name": "40",
    "texture": "6d24c16e-fcb3-4be8-aefb-5d7f791cf234",
    "atlas": "",
    "rect": [
      10,
      0,
      201,
      224
    ],
    "offset": [
      -1.5,
      0
    ],
    "originalSize": [
      224,
      224
    ],
    "capInsets": [
      0,
      0,
      0,
      0
    ]
  }
}