{
  "__type__": "cc.SpriteFrame",
  "content": {
    "name": "22",
    "texture": "3d6fd582-2b18-4f3e-b593-2f27e43cb57a",
    "atlas": "",
    "rect": [
      7,
      0,
      207,
      199
    ],
    "offset": [
      -0.5,
      0
    ],
    "originalSize": [
      222,
      199
    ],
    "capInsets": [
      0,
      0,
      0,
      0
    ]
  }
}