{
  "__type__": "cc.SpriteFrame",
  "content": {
    "name": "ElectricityFX15-8",
    "texture": "f8935352-15b2-4fe1-aeda-788cb04a66a2",
    "atlas": "",
    "rect": [
      20,
      76,
      220,
      165
    ],
    "offset": [
      2,
      -30.5
    ],
    "originalSize": [
      256,
      256
    ],
    "capInsets": [
      0,
      0,
      0,
      0
    ]
  }
}