{
  "__type__": "cc.SpriteFrame",
  "content": {
    "name": "17",
    "texture": "d62aad51-ab0d-4da2-b429-10cc9398f073",
    "atlas": "",
    "rect": [
      0,
      16,
      232,
      199
    ],
    "offset": [
      0,
      0.5
    ],
    "originalSize": [
      232,
      232
    ],
    "capInsets": [
      0,
      0,
      0,
      0
    ]
  }
}