{
  "__type__": "cc.SpriteFrame",
  "content": {
    "name": "8",
    "texture": "14b858cc-bba0-4b24-a7ba-d633c7c44733",
    "atlas": "",
    "rect": [
      11,
      0,
      174,
      249
    ],
    "offset": [
      1,
      0
    ],
    "originalSize": [
      194,
      249
    ],
    "capInsets": [
      0,
      0,
      0,
      0
    ]
  }
}