{
  "__type__": "cc.SpriteFrame",
  "content": {
    "name": "ElectricityFX38-11",
    "texture": "6b84bf13-6007-40d2-84cc-a937f89d64c2",
    "atlas": "",
    "rect": [
      70,
      125,
      95,
      110
    ],
    "offset": [
      -4.5,
      -52
    ],
    "originalSize": [
      244,
      256
    ],
    "capInsets": [
      0,
      0,
      0,
      0
    ]
  }
}