{
  "__type__": "cc.SpriteAtlas",
  "_name": "running.plist",
  "_objFlags": 0,
  "_native": "",
  "_spriteFrames": {
    "run_1": {
      "__uuid__": "43bace7a-75ac-4a3d-a2a7-331f7fc346c7"
    },
    "run_2": {
      "__uuid__": "06fb61ee-aa8d-4aec-a3de-1da89fa43389"
    },
    "run_3": {
      "__uuid__": "4278753f-a2c5-4073-8e78-1379defbac28"
    },
    "run_4": {
      "__uuid__": "23d6e6cd-cc38-46d0-8dcb-202b92dfe25a"
    },
    "run_5": {
      "__uuid__": "23384c12-56b5-4368-b3b5-f70bd1687449"
    },
    "run_6": {
      "__uuid__": "ac9ea649-618c-4df2-895d-2b845edc7399"
    },
    "run_7": {
      "__uuid__": "8efa179c-7e0e-42c2-bc57-50890438db76"
    }
  }
}