{
  "__type__": "cc.SpriteFrame",
  "content": {
    "name": "39",
    "texture": "05a7b94e-b9a8-428a-aafd-e1dba976cacc",
    "atlas": "",
    "rect": [
      25,
      0,
      160,
      210
    ],
    "offset": [
      0,
      0
    ],
    "originalSize": [
      210,
      210
    ],
    "capInsets": [
      0,
      0,
      0,
      0
    ]
  }
}