{
  "__type__": "cc.SpriteFrame",
  "content": {
    "name": "34",
    "texture": "cf295bec-234b-458a-871d-70b78943dc3b",
    "atlas": "",
    "rect": [
      17,
      17,
      311,
      138
    ],
    "offset": [
      0.5,
      0.5
    ],
    "originalSize": [
      344,
      173
    ],
    "capInsets": [
      0,
      0,
      0,
      0
    ]
  }
}