{
  "__type__": "cc.SpriteFrame",
  "content": {
    "name": "11",
    "texture": "3e3014c3-3104-42ed-8b77-afe29f4c5e56",
    "atlas": "",
    "rect": [
      7,
      0,
      175,
      191
    ],
    "offset": [
      -0.5,
      0
    ],
    "originalSize": [
      190,
      191
    ],
    "capInsets": [
      0,
      0,
      0,
      0
    ]
  }
}