{
  "__type__": "cc.SpriteFrame",
  "content": {
    "name": "16",
    "texture": "6f2948d6-2963-44c1-bc77-cf949d70ae57",
    "atlas": "",
    "rect": [
      21,
      0,
      168,
      210
    ],
    "offset": [
      0,
      0
    ],
    "originalSize": [
      210,
      210
    ],
    "capInsets": [
      0,
      0,
      0,
      0
    ]
  }
}