{
  "__type__": "cc.SpriteFrame",
  "content": {
    "name": "14",
    "texture": "9160ee2e-4742-4dba-8f70-4a4dae22e855",
    "atlas": "",
    "rect": [
      12,
      40,
      285,
      231
    ],
    "offset": [
      -0.5,
      -0.5
    ],
    "originalSize": [
      310,
      310
    ],
    "capInsets": [
      0,
      0,
      0,
      0
    ]
  }
}