{
  "__type__": "cc.SpriteFrame",
  "content": {
    "name": "3",
    "texture": "9587da22-c0db-4ae0-8fb8-42c5a95fc561",
    "atlas": "",
    "rect": [
      26,
      0,
      180,
      232
    ],
    "offset": [
      0,
      0
    ],
    "originalSize": [
      232,
      232
    ],
    "capInsets": [
      0,
      0,
      0,
      0
    ]
  }
}