{
  "__type__": "cc.SpriteFrame",
  "content": {
    "name": "36",
    "texture": "a603d097-18c5-42c4-902c-3ddbcfda4630",
    "atlas": "",
    "rect": [
      0,
      0,
      232,
      230
    ],
    "offset": [
      0,
      0
    ],
    "originalSize": [
      232,
      230
    ],
    "capInsets": [
      0,
      0,
      0,
      0
    ]
  }
}