{
  "__type__": "cc.SpriteFrame",
  "content": {
    "name": "31",
    "texture": "229dde6b-e183-4f89-a0b0-f5333b6fb647",
    "atlas": "",
    "rect": [
      13,
      16,
      184,
      177
    ],
    "offset": [
      0,
      0.5
    ],
    "originalSize": [
      210,
      210
    ],
    "capInsets": [
      0,
      0,
      0,
      0
    ]
  }
}