{
  "__type__": "cc.SpriteFrame",
  "content": {
    "name": "11",
    "texture": "046375b4-0089-4add-a695-711bc5f78c9d",
    "atlas": "",
    "rect": [
      6,
      0,
      163,
      223
    ],
    "offset": [
      0.5,
      0
    ],
    "originalSize": [
      174,
      223
    ],
    "capInsets": [
      0,
      0,
      0,
      0
    ]
  }
}