{
  "__type__": "cc.SpriteFrame",
  "content": {
    "name": "4",
    "texture": "7c7b034a-b23b-4882-b019-3df7787e2e4e",
    "atlas": "",
    "rect": [
      7,
      0,
      157,
      275
    ],
    "offset": [
      0.5,
      0
    ],
    "originalSize": [
      170,
      275
    ],
    "capInsets": [
      0,
      0,
      0,
      0
    ]
  }
}