{
  "__type__": "cc.SpriteFrame",
  "content": {
    "name": "21",
    "texture": "6bbfdaec-ddfc-4f26-b595-a56f13550fc1",
    "atlas": "",
    "rect": [
      0,
      15,
      232,
      200
    ],
    "offset": [
      0,
      1
    ],
    "originalSize": [
      232,
      232
    ],
    "capInsets": [
      0,
      0,
      0,
      0
    ]
  }
}