{
  "__type__": "cc.SpriteFrame",
  "content": {
    "name": "21",
    "texture": "f2745081-cd24-41c8-9465-b0d9cae0b3f1",
    "atlas": "",
    "rect": [
      0,
      0,
      224,
      224
    ],
    "offset": [
      0,
      0
    ],
    "originalSize": [
      224,
      224
    ],
    "capInsets": [
      0,
      0,
      0,
      0
    ]
  }
}