{
  "__type__": "cc.SpriteFrame",
  "content": {
    "name": "24",
    "texture": "1ad11ab4-fd6d-4dd5-b9d4-56dce8e64532",
    "atlas": "",
    "rect": [
      4,
      0,
      231,
      223
    ],
    "offset": [
      -0.5,
      0
    ],
    "originalSize": [
      240,
      223
    ],
    "capInsets": [
      0,
      0,
      0,
      0
    ]
  }
}