{
  "__type__": "cc.SpriteFrame",
  "content": {
    "name": "26",
    "texture": "32a2360c-a0ea-4fad-9e69-dea75a304d2f",
    "atlas": "",
    "rect": [
      8,
      0,
      222,
      223
    ],
    "offset": [
      -1,
      0
    ],
    "originalSize": [
      240,
      223
    ],
    "capInsets": [
      0,
      0,
      0,
      0
    ]
  }
}