{
  "__type__": "cc.SpriteFrame",
  "content": {
    "name": "23",
    "texture": "e28fcf5b-8d3d-4079-8dcd-45383f48634f",
    "atlas": "",
    "rect": [
      0,
      0,
      222,
      199
    ],
    "offset": [
      0,
      0
    ],
    "originalSize": [
      222,
      199
    ],
    "capInsets": [
      0,
      0,
      0,
      0
    ]
  }
}