{
  "__type__": "cc.SpriteFrame",
  "content": {
    "name": "5",
    "texture": "7b64ddaa-8e76-4d88-b087-baabca04cd91",
    "atlas": "",
    "rect": [
      1,
      1,
      848,
      848
    ],
    "offset": [
      0,
      0
    ],
    "originalSize": [
      850,
      850
    ],
    "capInsets": [
      0,
      0,
      0,
      0
    ]
  }
}