{
  "__type__": "cc.SpriteFrame",
  "content": {
    "name": "40",
    "texture": "67194770-8bd2-4ea5-9b53-576725f8de63",
    "atlas": "",
    "rect": [
      0,
      29,
      344,
      115
    ],
    "offset": [
      0,
      0
    ],
    "originalSize": [
      344,
      173
    ],
    "capInsets": [
      0,
      0,
      0,
      0
    ]
  }
}