{
  "__type__": "cc.SpriteFrame",
  "content": {
    "name": "run_1",
    "texture": "74caa8d4-b0a9-4cd9-be57-fdfb45c4107b",
    "atlas": "5b8fbfcd-0a35-4c8a-a457-3826aa48eab0",
    "rect": [
      0,
      0,
      68,
      90
    ],
    "offset": [
      0,
      0
    ],
    "originalSize": [
      68,
      90
    ],
    "capInsets": [
      0,
      0,
      0,
      0
    ]
  }
}