{
  "__type__": "cc.SpriteFrame",
  "content": {
    "name": "19",
    "texture": "ced58ec3-6a81-4639-9c36-1f69c559a98d",
    "atlas": "",
    "rect": [
      0,
      42,
      310,
      226
    ],
    "offset": [
      0,
      0
    ],
    "originalSize": [
      310,
      310
    ],
    "capInsets": [
      0,
      0,
      0,
      0
    ]
  }
}