{
  "__type__": "cc.SpriteFrame",
  "content": {
    "name": "16",
    "texture": "ba9c82b2-6ff9-4903-a5f5-048e6406a823",
    "atlas": "",
    "rect": [
      0,
      16,
      232,
      199
    ],
    "offset": [
      0,
      0.5
    ],
    "originalSize": [
      232,
      232
    ],
    "capInsets": [
      0,
      0,
      0,
      0
    ]
  }
}