{
  "__type__": "cc.SpriteFrame",
  "content": {
    "name": "test_2",
    "texture": "372f8beb-cd45-4f90-aff8-6120795210ff",
    "atlas": "",
    "rect": [
      0,
      0,
      1196,
      660
    ],
    "offset": [
      0,
      0
    ],
    "originalSize": [
      1196,
      660
    ],
    "capInsets": [
      0,
      0,
      0,
      0
    ]
  }
}