{
  "__type__": "cc.SpriteFrame",
  "content": {
    "name": "4",
    "texture": "db426c69-890d-4cd1-b88c-6278de110b21",
    "atlas": "",
    "rect": [
      62,
      12,
      236,
      192
    ],
    "offset": [
      -3,
      -0.5
    ],
    "originalSize": [
      366,
      215
    ],
    "capInsets": [
      0,
      0,
      0,
      0
    ]
  }
}