{
  "__type__": "cc.SpriteFrame",
  "content": {
    "name": "ElectricityFX13-0",
    "texture": "984cfe2a-6263-4cda-983d-9a53dbce3985",
    "atlas": "",
    "rect": [
      71,
      50,
      111,
      163
    ],
    "offset": [
      18,
      -3.5
    ],
    "originalSize": [
      217,
      256
    ],
    "capInsets": [
      0,
      0,
      0,
      0
    ]
  }
}