{
  "__type__": "cc.SpriteFrame",
  "content": {
    "name": "34",
    "texture": "c9f7168e-4bfa-40ee-884a-e4dc37710b4d",
    "atlas": "",
    "rect": [
      0,
      0,
      204,
      232
    ],
    "offset": [
      0,
      0
    ],
    "originalSize": [
      204,
      232
    ],
    "capInsets": [
      0,
      0,
      0,
      0
    ]
  }
}