{
  "__type__": "cc.SpriteFrame",
  "content": {
    "name": "14",
    "texture": "996f4d72-0705-42c2-977d-ecc4c96a404a",
    "atlas": "",
    "rect": [
      0,
      0,
      190,
      191
    ],
    "offset": [
      0,
      0
    ],
    "originalSize": [
      190,
      191
    ],
    "capInsets": [
      0,
      0,
      0,
      0
    ]
  }
}