{
  "__type__": "cc.SpriteFrame",
  "content": {
    "name": "run_5",
    "texture": "8066945c-e266-41b1-b073-0f113906a01c",
    "atlas": "72c9a64b-c357-493e-b484-8ed46e14fa33",
    "rect": [
      68,
      90,
      68,
      90
    ],
    "offset": [
      0,
      0
    ],
    "originalSize": [
      68,
      90
    ],
    "capInsets": [
      0,
      0,
      0,
      0
    ]
  }
}