{
  "__type__": "cc.SpriteFrame",
  "content": {
    "name": "33",
    "texture": "6ab1defb-c73f-40b0-a87d-1d574bbe049e",
    "atlas": "",
    "rect": [
      23,
      7,
      164,
      194
    ],
    "offset": [
      0,
      1
    ],
    "originalSize": [
      210,
      210
    ],
    "capInsets": [
      0,
      0,
      0,
      0
    ]
  }
}