{
  "__type__": "cc.AnimationClip",
  "_name": "PlayerFalling",
  "_objFlags": 0,
  "_native": "",
  "_duration": 0.016666666666666666,
  "sample": 60,
  "speed": 1,
  "wrapMode": 2,
  "curveData": {
    "comps": {
      "cc.Sprite": {
        "spriteFrame": [
          {
            "frame": 0,
            "value": {
              "__uuid__": "091bde98-1bdb-4608-a951-f394b02968a3"
            }
          }
        ]
      }
    }
  },
  "events": []
}