{
  "__type__": "cc.SpriteFrame",
  "content": {
    "name": "20",
    "texture": "cc12a4ea-a06d-43fd-9030-374a29c3be2b",
    "atlas": "",
    "rect": [
      0,
      16,
      232,
      199
    ],
    "offset": [
      0,
      0.5
    ],
    "originalSize": [
      232,
      232
    ],
    "capInsets": [
      0,
      0,
      0,
      0
    ]
  }
}