{
  "__type__": "cc.SpriteFrame",
  "content": {
    "name": "3",
    "texture": "fca08cc7-dea9-4ed7-b45b-0cb6c69c8b56",
    "atlas": "",
    "rect": [
      71,
      23,
      167,
      266
    ],
    "offset": [
      -0.5,
      -1
    ],
    "originalSize": [
      310,
      310
    ],
    "capInsets": [
      0,
      0,
      0,
      0
    ]
  }
}