{
  "__type__": "cc.SpriteFrame",
  "content": {
    "name": "17",
    "texture": "78ffa738-3880-4f9c-a7f2-eae18501c29f",
    "atlas": "",
    "rect": [
      21,
      0,
      169,
      210
    ],
    "offset": [
      0.5,
      0
    ],
    "originalSize": [
      210,
      210
    ],
    "capInsets": [
      0,
      0,
      0,
      0
    ]
  }
}