{
  "__type__": "cc.SpriteFrame",
  "content": {
    "name": "ElectricityFX15-6",
    "texture": "9c35cdf0-d281-4976-8edf-05e5a922c63c",
    "atlas": "",
    "rect": [
      16,
      103,
      222,
      134
    ],
    "offset": [
      -1,
      -42
    ],
    "originalSize": [
      256,
      256
    ],
    "capInsets": [
      0,
      0,
      0,
      0
    ]
  }
}