{
  "__type__": "cc.SpriteFrame",
  "content": {
    "name": "ElectricityFX39-11",
    "texture": "42d08ffc-bf6e-4e5f-af07-438955ce26e1",
    "atlas": "",
    "rect": [
      18,
      15,
      112,
      231
    ],
    "offset": [
      -50.5,
      -2.5
    ],
    "originalSize": [
      249,
      256
    ],
    "capInsets": [
      0,
      0,
      0,
      0
    ]
  }
}