{
  "__type__": "cc.SpriteFrame",
  "content": {
    "name": "33",
    "texture": "89c0122f-113b-48d2-af00-19e17ed18f3c",
    "atlas": "",
    "rect": [
      10,
      0,
      201,
      224
    ],
    "offset": [
      -1.5,
      0
    ],
    "originalSize": [
      224,
      224
    ],
    "capInsets": [
      0,
      0,
      0,
      0
    ]
  }
}