{
  "__type__": "cc.SpriteFrame",
  "content": {
    "name": "18",
    "texture": "0904a652-dd8d-48fd-83b3-b088e3dd65a3",
    "atlas": "",
    "rect": [
      16,
      0,
      160,
      191
    ],
    "offset": [
      1,
      0
    ],
    "originalSize": [
      190,
      191
    ],
    "capInsets": [
      0,
      0,
      0,
      0
    ]
  }
}