{
  "__type__": "cc.SpriteFrame",
  "content": {
    "name": "10",
    "texture": "1a1f7423-d1f1-4fbd-92d7-ea0be850945f",
    "atlas": "",
    "rect": [
      0,
      0,
      780,
      780
    ],
    "offset": [
      0,
      0
    ],
    "originalSize": [
      780,
      780
    ],
    "capInsets": [
      0,
      0,
      0,
      0
    ]
  }
}