{
  "__type__": "cc.SpriteFrame",
  "content": {
    "name": "31",
    "texture": "f5433c42-9671-4d09-8661-523a7f979e41",
    "atlas": "",
    "rect": [
      29,
      4,
      286,
      166
    ],
    "offset": [
      0,
      -0.5
    ],
    "originalSize": [
      344,
      173
    ],
    "capInsets": [
      0,
      0,
      0,
      0
    ]
  }
}