{
  "__type__": "cc.SpriteFrame",
  "content": {
    "name": "20",
    "texture": "18fc5692-4d7b-4ad7-8684-d12d862e5160",
    "atlas": "",
    "rect": [
      21,
      11,
      166,
      189
    ],
    "offset": [
      -1,
      -0.5
    ],
    "originalSize": [
      210,
      210
    ],
    "capInsets": [
      0,
      0,
      0,
      0
    ]
  }
}