{
  "__type__": "cc.SpriteFrame",
  "content": {
    "name": "36",
    "texture": "a8145f44-72a0-4f4a-858b-10dc06245404",
    "atlas": "",
    "rect": [
      8,
      22,
      328,
      127
    ],
    "offset": [
      0,
      1
    ],
    "originalSize": [
      344,
      173
    ],
    "capInsets": [
      0,
      0,
      0,
      0
    ]
  }
}