{
  "__type__": "cc.SpriteFrame",
  "content": {
    "name": "18",
    "texture": "86ff86d8-275d-4058-af31-50b55f1ead80",
    "atlas": "",
    "rect": [
      0,
      41,
      310,
      227
    ],
    "offset": [
      0,
      0.5
    ],
    "originalSize": [
      310,
      310
    ],
    "capInsets": [
      0,
      0,
      0,
      0
    ]
  }
}