{
  "__type__": "cc.SpriteFrame",
  "content": {
    "name": "13",
    "texture": "1dfff01d-d49c-4045-9236-90db87485b5b",
    "atlas": "",
    "rect": [
      17,
      39,
      273,
      232
    ],
    "offset": [
      -1.5,
      0
    ],
    "originalSize": [
      310,
      310
    ],
    "capInsets": [
      0,
      0,
      0,
      0
    ]
  }
}